{
  "paper_title": "The Paper Title: The Subtitle",
  "author": "John D. Boy",
  "slug": "{{ cookiecutter.paper_title.split(':')[0].lower().replace(' ', '_').replace('-', '_') }}",
  "bib_url": "https://jboy.keybase.pub/Everything.bib",
  "citation_style": "chicago-author-date",
  "git_remote": "{{ 'ssh://git@bitbucket.org/jboy1/{}.git'.format(cookiecutter.slug) }}"
}
